^D:\WORKSPACE\SMARTCHECKSIMULATOR\SMARTCHECKSIMULATOR\CONFIGUREVIEW.UI
D:\WORKSPACE\SMARTCHECKSIMULATOR\SMARTCHECKSIMULATOR\GENERATEDFILES\UI_CONFIGUREVIEW.H
^D:\WORKSPACE\SMARTCHECKSIMULATOR\SMARTCHECKSIMULATOR\CONFIGUREVIEW.QRC
D:\WORKSPACE\SMARTCHECKSIMULATOR\SMARTCHECKSIMULATOR\GENERATEDFILES\QRC_CONFIGUREVIEW.CPP
^D:\WORKSPACE\SMARTCHECKSIMULATOR\SMARTCHECKSIMULATOR\CONFIGUREVIEW.H
D:\WORKSPACE\SMARTCHECKSIMULATOR\SMARTCHECKSIMULATOR\GENERATEDFILES\RELEASE\MOC_CONFIGUREVIEW.CPP
^D:\WORKSPACE\SMARTCHECKSIMULATOR\SMARTCHECKSIMULATOR\ITR\SCANPROCESS.H
D:\WORKSPACE\SMARTCHECKSIMULATOR\SMARTCHECKSIMULATOR\GENERATEDFILES\RELEASE\MOC_SCANPROCESS.CPP
